0.7643769674027849, 0.005644174092056228
0.7640159743735269, 0.005505753669289581
0.7640021624663205, 0.0054105896286375105
0.7639883505591141, 0.00531542558798544
0.7639745386519077, 0.00522026154733337
0.7639607267447013, 0.0051250975066813
0.7639469148374949, 0.005029933466029229
0.7639331029302885, 0.00493476942537716
0.7639192910230821, 0.00483960538472509
0.7639054791158757, 0.0047444413440730195
0.7637769865245919, 0.004642067906401853
0.765091105786752, 0.005866944459946301
0.7643920349379192, 0.0057479894091312135
0.7646674359967619, 0.0045137406394619405
0.7644209143802598, 0.0043810877343105695
0.7657956176899389, 0.006023388375260689
0.7653119916663937, 0.0042570861055821144
0.7651818249045395, 0.004143177632680395
0.7664945839031111, 0.006141622486373867
0.7658444825434646, 0.004011245667230934
0.7668492987927299, 0.006236786527025937
0.76650400111257, 0.003857685510724184
0.7678924116937947, 0.006377369768898314
0.7671613223328017, 0.0036889856204773324
0.767820840901907, 0.0035354254639705833
0.7692801944610557, 0.006543906840039436
0.7685967143256603, 0.003400609739713484
0.7692582209723182, 0.003260747437543017
0.7706660937864247, 0.006697466996546186
0.7699199368902974, 0.0031223270147763696
0.7705814435369552, 0.0029824647126059037
0.772049481855938, 0.006833724600207105
0.7712425316409705, 0.0028397186516277984
0.7721289003223749, 0.0026832747363134107
0.7734325560184695, 0.006967819384762294
0.7724493993509597, 0.002542691494441033
0.7732274701235866, 0.002423015503924035
0.7748162579949648, 0.007106239807528942
0.7738889767702446, 0.00228315320175357
0.7744348610118791, 0.0021295930452468192
0.7762007447389151, 0.007250067278059911
0.7750946934879664, 0.0019781957078457996
0.7757515438477253, 0.0018062515889403549
0.7775857546611685, 0.007397499447100429
0.7765234934342039, 0.0016444006258616445
0.7763936405793317, 0.0015326549720656533
0.7782843023316981, 0.007512849799405969
0.7770558273577838, 0.0013974787779575983
0.7786402728492448, 0.007616665116480954
0.7777186419501998, 0.001266628222061002
0.7777048300429934, 0.0011714641814089318
0.7775748725524605, 0.0010589975879110314
0.7796954711691153, 0.007840516893923892
0.779335576814294, 0.007709666338027296
0.778353989681694, 0.000946530994413131
0.7783401777744876, 0.0008513669537610607
0.7783263658672812, 0.0007562029131089904
0.7781964083767483, 0.0006437363196110883
0.7803020964117598, 0.008888402750649527
0.7801721389212269, 0.008775936157151627
0.7801583270140205, 0.008680772116499556
0.7801445151068142, 0.008585608075847486
0.7801307031996078, 0.008490444035195416
0.7801168912924014, 0.008395279994543346
0.780103079385195, 0.008300115953891275
0.7800892674779886, 0.008204951913239205
0.7800754555707822, 0.008109787872587135
0.7800616436635758, 0.008014623831935064
0.7797132069135962, 0.007962716173397572
0.7789780367618376, 0.000548572278959018
0.7789642248546312, 0.0004534082383069477
0.7789504129474248, 0.0003582441976548792
0.7789366010402184, 0.00026308015700280893
0.778922789133012, 0.00016791611635073866
0.7789048964350401, 0.00004463542732419286
