0	0.0017599999999999838
0.6390685640362221	0.0509967399741269
1.1772315653298833	0.10200031047865465
1.7490297542043978	0.1530016041397153
2.320827943078913	0.2022428978007762
2.926261319534281	0.2550019146183702
3.6998706338939202	0.3218295472186289
4.271668822768434	0.37107084087968967
4.8771021992238035	0.42382985769728343
5.482535575679173	0.4783488745148773
6.256144890038811	0.5416565071151358
6.8615782664941785	0.5926555239327297
7.39974126778784	0.6401390944372575
7.904269081500646	0.6823449417852523
8.408796895213456	0.7227907891332472
9.014230271668822	0.768509805950841
9.451487710219922	0.8036802069857698
10.02328589909444	0.8423615006468306
10.86416558861578	0.8968645795601553
11.267787839586028	0.9214772574385512
11.73868046571798	0.944325381630013
12.243208279430789	0.9636512289780079
12.61319534282018	0.9777061836998707
13.084087968952133	0.9882343078913326
13.588615782664942	0.9952401552393274
14.025873221216042	0.9969705562742563
14.631306597671411	0.99868957309185
15.909443725743856	1.0003630530401035
16.985769728331178	1.000290194049159
17.99482535575679	1.0002218887451488
19.003880983182405	1.0001535834411386
20.012936610608023	0.9983252781371281
