0	7.999999999999998
0.9851150202976999	7.9475020478727
1.9702300405953999	7.92175994858821
2.990527740189446	7.842542349102331
3.7293640054127213	7.736279252899832
4.503382949932341	7.603296509338751
5.347767253044655	7.390118618217693
6.08660351826793	7.15007625780115
6.719891745602165	6.8831694280891185
7.317997293640055	6.589470540050051
7.810554803788904	6.295663035558311
8.408660351826795	5.894940736148008
9.006765899864684	5.440706731052085
9.499323410013533	5.013119962346295
9.956698240866036	4.5854969881562795
10.41407307171854	4.157874013966264
10.906630581867388	3.650019686732046
11.364005412719893	3.195640859699221
11.821380243572397	2.714506179823587
12.313937753721246	2.2334077054321817
12.806495263870096	1.832576789569199
13.228687415426252	1.5386968741090037
13.54533152909337	1.3784876064101788
13.826792963464142	1.24499798606994
14.31935047361299	1.1117255986350507
14.987821380243576	1.0589017971497228
16.043301759133968	1.0064762559908722
21.004059539918813	1.0115812292666995
