532.6528907207307, -1.63290440395861e-11
832.6696000891166, -1.0581213919224334e-11
1132.6863094575028, -1.7625842539847884e-11
1432.7030188258886, 7.57396508447374e-12
1732.7197281942745, 6.586842597912895e-11
2032.7364375626607, 9.646360773892501e-11
2330.0057411675984, 5.693433415179008e-10
2528.795811518325, 1.616766467065864e-9
2654.1996212543168, 2.7349622563383837e-9
2754.205191043779, 3.848101669002419e-9
2832.780995878356, 4.931965855522993e-9
2904.2135457279715, 6.102974901261304e-9
2983.9172329285952, 7.779963697915023e-9
3082.7949203520106, 9.524562781148008e-9
3139.9409602317032, 1.0690334756019872e-8
3189.9437451264344, 1.1736526946107781e-8
3247.089785006127, 1.2932953242451264e-8
3325.665589840704, 1.4400799464899984e-8
3411.384649660243, 1.574882150592432e-8
3604.2525342542053, 1.6965620601710503e-8
3797.1204188481674, 1.565350681615492e-8
3875.6962236827453, 1.4387183080647212e-8
3947.128773532361, 1.3085456746082299e-8
4018.5613233819763, 1.1729264874506302e-8
4089.993873231592, 1.0313160912218114e-8
4132.853403141362, 9.525086488234656e-9
4208.367812982384, 8.197633796049423e-9
4311.4347777654, 6.612227672314941e-9
4404.297092569901, 5.443163824327025e-9
4518.589172329286, 4.229360428080006e-9
4647.167762058594, 3.1572923049544267e-9
4854.32215662248, 2.0689065051714755e-9
5089.005235602095, 1.1377245508981997e-9
5518.644870223907, 4.675924879587703e-12
5818.661579592292, -7.071191962579434e-10
6118.678288960678, -1.395592873961369e-9
6418.694998329063, -1.8644791103066058e-9
6718.71170769745, -2.0919147376111885e-9
7018.728417065837, -2.025287363929233e-9
7318.745126434222, -1.7264100219014894e-9
7618.761835802608, -1.2393829362551542e-9
7918.778545170993, -8.730888201885397e-10
8218.79525453938, -5.529082412682283e-10
8518.811963907765, -3.8420830878468844e-10
8818.828673276152, -3.2802176801412515e-10
9118.845382644537, -3.3603712422783964e-10
9418.862092012923, -3.7595382430940025e-10
9718.878801381308, -6.638709662741396e-10
10018.895510749695, -9.235980925686605e-10
10318.912220118082, -1.2427957805621963e-9
10618.928929486467, -1.5688273908110824e-9
10918.945638854853, -1.96820942353244e-9
11218.962348223238, -2.502608764234451e-9
11518.979057591625, -3.0112281998589157e-9
11818.99576696001, -3.7116140060304873e-9
12119.012476328397, -4.3207490793489005e-9
12419.029185696781, -5.14034930967025e-9
12719.045895065168, -5.822978987747472e-9
13019.062604433553, -6.6630265305255735e-9
13319.07931380194, -7.333039088995263e-9
13619.096023170325, -8.069476548422914e-9
13919.112732538711, -8.57595664077837e-9
14235.201765623258, -9.25796970261233e-9
14500.626601314472, -9.505932036762127e-9
14819.16286064387, -9.92297211915726e-9
15047.74702016264, -1.0081872039286992e-8
