\relax
\@writefile{toc}{\contentsline {section}{\numberline {1}CPG \& LTE}{1}}
\@writefile{toc}{\contentsline {subsection}{\numberline {1.1}momentum x total}{1}}
\@writefile{toc}{\contentsline {subsection}{\numberline {1.2}momentum z total}{1}}
\@writefile{toc}{\contentsline {subsection}{\numberline {1.3}energy total}{1}}
\@writefile{toc}{\contentsline {subsection}{\numberline {1.4}momentum x perturbation}{2}}
\@writefile{toc}{\contentsline {subsection}{\numberline {1.5}momentum z perturbation}{2}}
\@writefile{toc}{\contentsline {subsection}{\numberline {1.6}energy perturbation}{2}}
\@writefile{toc}{\contentsline {section}{\numberline {2}CNE (Fick's law)}{3}}
\@writefile{toc}{\contentsline {subsection}{\numberline {2.1}species s total}{3}}
\@writefile{toc}{\contentsline {subsection}{\numberline {2.2}moment x total}{3}}
\@writefile{toc}{\contentsline {subsection}{\numberline {2.3}moment z total}{3}}
\@writefile{toc}{\contentsline {subsection}{\numberline {2.4}energy total}{3}}
\@writefile{toc}{\contentsline {subsection}{\numberline {2.5}species s full expression}{4}}
\@writefile{toc}{\contentsline {subsection}{\numberline {2.6}moment x full expression}{4}}
\@writefile{toc}{\contentsline {subsection}{\numberline {2.7}moment z full expression}{4}}
\@writefile{toc}{\contentsline {subsection}{\numberline {2.8}energy full expression}{5}}
\@writefile{toc}{\contentsline {subsection}{\numberline {2.9}species s fluctuation}{6}}
\@writefile{toc}{\contentsline {subsection}{\numberline {2.10}moment x fluctuation}{6}}
\@writefile{toc}{\contentsline {subsection}{\numberline {2.11}moment z fluctuation}{6}}
\@writefile{toc}{\contentsline {subsection}{\numberline {2.12}energy fluctuation}{6}}
\@writefile{toc}{\contentsline {subsection}{\numberline {2.13}species s higher order terms}{7}}
\@writefile{toc}{\contentsline {subsection}{\numberline {2.14}moment x higher order terms}{7}}
\@writefile{toc}{\contentsline {subsection}{\numberline {2.15}moment z higher order terms}{7}}
\@writefile{toc}{\contentsline {subsection}{\numberline {2.16}energy higher order terms}{7}}
\@writefile{toc}{\contentsline {section}{\numberline {3}CNE (Full Diffusion)}{8}}
\@writefile{toc}{\contentsline {subsection}{\numberline {3.1}species s total}{8}}
\@writefile{toc}{\contentsline {subsection}{\numberline {3.2}energy total}{8}}
\@writefile{toc}{\contentsline {subsection}{\numberline {3.3}species s full expression}{9}}
\@writefile{toc}{\contentsline {subsection}{\numberline {3.4}energy full expression}{10}}
\@writefile{toc}{\contentsline {subsection}{\numberline {3.5}species s fluctuation}{11}}
\@writefile{toc}{\contentsline {subsection}{\numberline {3.6}energy fluctuation}{11}}
\@writefile{toc}{\contentsline {subsection}{\numberline {3.7}species s higher order terms}{12}}
\@writefile{toc}{\contentsline {subsection}{\numberline {3.8}energy higher order terms}{12}}
\@writefile{toc}{\contentsline {section}{\numberline {4}Chemical Equilibrium with elemental diffusion}{13}}
\@writefile{toc}{\contentsline {subsection}{\numberline {4.1}species s total}{13}}
\@writefile{toc}{\contentsline {subsection}{\numberline {4.2}energy total}{13}}
\@writefile{toc}{\contentsline {subsection}{\numberline {4.3}species s full expression}{14}}
\@writefile{toc}{\contentsline {subsection}{\numberline {4.4}energy full expression}{14}}
\@writefile{toc}{\contentsline {subsection}{\numberline {4.5}species s fluctuation}{15}}
\@writefile{toc}{\contentsline {subsection}{\numberline {4.6}energy fluctuation}{15}}
\@writefile{toc}{\contentsline {subsection}{\numberline {4.7}species s higher order terms}{16}}
\@writefile{toc}{\contentsline {subsection}{\numberline {4.8}energy higher order terms}{16}}
