0.23106546854942245, 5.042318487413242
0.539152759948653, 5.035183815263666
0.8472400513478817, 5.020986996221435
1.1553273427471122, 5.013852324071858
1.540436456996149, 4.999637373715397
1.9255455712451868, 4.985422423358935
2.3106546854942236, 4.971207473002473
2.8112965340179716, 4.942841031889356
3.3119383825417206, 4.914474590776239
3.889602053915276, 4.879027871456235
4.544287548138639, 4.836500873929347
5.2759948652118105, 4.7798314513029165
6.046213093709886, 4.716090816126717
6.970474967907574, 4.624065330751435
7.933247753530168, 4.5037821921484165
8.973042362002568, 4.355232334660546
10.166880616174584, 4.157211186295628
11.437740693196407, 3.8956125845825813
12.862644415917845, 3.5492319575292104
14.441591784338893, 3.089820717564892
16.097560975609753, 2.496210555325893
17.869062901155328, 1.789578845833062
18.870346598202826, 1.450360087900612
19.833119383825416, 1.1817718645518305
20.603337612323493, 1.0756583480196982
21.95121951219512, 1.0047195810941165
24.184852374839537, 0.9971316260887848
26.649550706033374, 0.9965514240334192
29.229781771501926, 0.9959440250067084
