0.00005251664106502795, 300.0849338224716
0.00014236815156169996, 300.77648539778477
0.00023221966205837176, 301.9447213830145
0.0003215232974910394, 302.9685153215366
0.00041192268305171535, 304.0083441231478
0.0005045135688684075, 304.6610271903323
0.0005971044546850999, 304.5963746223566
0.0006848487533971405, 306.46922689596425
0.0007746159754224277, 305.5266532393421
0.0008643831974477132, 305.7170191339377
0.0009565104966717871, 305.0956361195033
0.0010477106227106227, 305.0083275234333
0.001134317027058963, 303.71942055929975
0.0012254388852315121, 303.03085886922753
0.001318186306780777, 301.737807509711
0.0014093081649533266, 301.8171430784724
0.0014984432234432237, 301.0525021302968
0.0015875782819331208, 300.6173406150749
0.0016779776674937968, 300.0744248198932
0.001768324372759857, 300.2642035918095
0.001858723758320533, 300.24399966431696
0.0019491758241758242, 299.3305058486329
0.002040839536807279, 298.93678828724154
0.0021306067588325655, 299.1464570173031
0.002225431289140967, 298.91813850801776
0.002314829749103943, 299.44931184961405
0.002398380696364568, 299.79502349781825
0.002489043483398323, 299.44447672166723
0.002583235850171334, 299.2600511271208
0.002677428216944346, 299.3553722209312
0.0027634024577572964, 300.123592419665
0.00357699692780338, 300.3439989014008
0.0036667641498286663, 299.3305058486329
0.003757795698924732, 300.27053007415554
0.0038454557091653872, 299.97461396441776
0.003942018689196108, 300.40338620342396
0.00402899385560676, 300.22644877780834
0.004122554058844382, 299.28610161238566
0.002897849462365592, 300.30211480362544
0.0031881720430107533, 300.30211480362544
0.0034516129032258073, 300.30211480362544
