-0.0000017981688469907633, 2628.323464684779
0.00010767732977246246, 2611.6363159173407
0.00021031659475764618, 2587.243995907126
0.00031296649979517896, 2547.2994660467057
0.00040193861753799824, 2499.7206986258366
0.0004909160553069919, 2444.365826279865
0.0005764780362719384, 2381.2703158499535
0.0006620506572892339, 2302.6225955698364
0.0007305087541030699, 2239.7044193457427
0.000819518112029111, 2137.6929174491534
0.0008879868488952966, 2059.2225313748536
0.0009633077794742747, 1965.1290017680217
0.0010523224574264904, 1855.3413949463293
0.0011345009017444364, 1737.8486168818613
0.0012132372891274622, 1651.4957253589682
0.0013056940240145979, 1510.5682319957014
0.001384451691502322, 1393.1109207723966
0.001459788582159824, 1275.6890763902557
0.001518000308561518, 1189.5489859143436
0.0015796381318196086, 1095.5973236721657
0.0016481121887119683, 1009.3508326727633
0.0017028924982310908, 938.7984188882201
0.001761120184711309, 829.3300136369999
0.0018330362985385887, 711.9436360960235
0.0019117833259739635, 610.0385347229239
0.0019802467428139746, 539.3442535737277
0.0021548340417834855, 350.90892647191777
0.002271177694194256, 295.2703193966381
0.0023669700854928206, 278.72503799385413
0.0029826992748804328, 287.89321643462426
