\relax
\providecommand\hyper@newdestlabel[2]{}
\providecommand\HyperFirstAtBeginDocument{\AtBeginDocument}
\HyperFirstAtBeginDocument{\ifx\hyper@anchor\@undefined
\global\let\oldcontentsline\contentsline
\gdef\contentsline#1#2#3#4{\oldcontentsline{#1}{#2}{#3}}
\global\let\oldnewlabel\newlabel
\gdef\newlabel#1#2{\newlabelxx{#1}#2}
\gdef\newlabelxx#1#2#3#4#5#6{\oldnewlabel{#1}{{#2}{#3}}}
\AtEndDocument{\ifx\hyper@anchor\@undefined
\let\contentsline\oldcontentsline
\let\newlabel\oldnewlabel
\fi}
\fi}
\global\let\hyper@last\relax
\gdef\HyperFirstAtBeginDocument#1{#1}
\providecommand\HyField@AuxAddToFields[1]{}
\providecommand\HyField@AuxAddToCoFields[2]{}
\@writefile{toc}{\contentsline {section}{\numberline {1}The bible}{1}{section.1}}
\@writefile{toc}{\contentsline {section}{\numberline {2}First steps - install everything}{1}{section.2}}
\@writefile{toc}{\contentsline {section}{\numberline {3}svn vs git}{1}{section.3}}
\@writefile{toc}{\contentsline {section}{\numberline {4}Basic commands}{1}{section.4}}
\@writefile{toc}{\contentsline {subsection}{\numberline {4.1}Cloning remote repository (very first step)}{1}{subsection.4.1}}
\@writefile{lof}{\contentsline {figure}{\numberline {1}{\ignorespaces Git architecture}}{2}{figure.1}}
\newlabel{git_sketch}{{1}{2}{Git architecture}{figure.1}{}}
\@writefile{toc}{\contentsline {subsection}{\numberline {4.2}Local single-branch commands}{2}{subsection.4.2}}
\@writefile{toc}{\contentsline {subsection}{\numberline {4.3}Local multi-branch commands}{2}{subsection.4.3}}
\@writefile{toc}{\contentsline {subsection}{\numberline {4.4}Remote single-branch commands}{3}{subsection.4.4}}
\@writefile{toc}{\contentsline {subsection}{\numberline {4.5}Remote multi-branch commands}{3}{subsection.4.5}}
\@writefile{lof}{\contentsline {figure}{\numberline {2}{\ignorespaces Conflict when combining local and online repositories.}}{4}{figure.2}}
\newlabel{fig_rebase_conflict}{{2}{4}{Conflict when combining local and online repositories}{figure.2}{}}
\@writefile{toc}{\contentsline {section}{\numberline {5}Random lessons we've been learning on the fly}{4}{section.5}}
