374.1715758468338, -1.0706018518520671e-11
536.8495336278843, -1.0706018518520671e-11
699.527491408935, -1.0706018518520671e-11
862.2054491899853, -1.0706018518520671e-11
1022.4185894288989, -6.701882624191706e-11
1187.5613647520863, -1.0706018518520671e-11
1350.239322533137, -1.0706018518520671e-11
1512.9172803141878, -1.0706018518520671e-11
1779.1175748649976, 5.902777777777265e-11
1945.492758959254, 6.387040252057301e-11
2104.473490427099, 2.2838128306877876e-10
2267.1514482081493, 5.438436948853566e-10
2429.8294059892, 1.1681272045855337e-9
2552.3660495125887, 1.979158137020243e-9
2655.888386282348, 2.705876007810532e-9
2718.213058419244, 3.550698578042325e-9
2804.1237113402062, 4.722222222222219e-9
2865.979381443299, 5.6388888888888875e-9
2932.6521845851744, 6.746830908289238e-9
3010.309278350516, 8.388888888888886e-9
3092.7835051546394, 1.0018518518518517e-8
3175.257731958763, 1.1648148148148144e-8
3216.4948453608254, 1.2666666666666664e-8
3272.7970054000984, 1.3687003968253965e-8
3341.811896579938, 1.5043922794597946e-8
3435.4749631811487, 1.6243909832451497e-8
3548.856570119457, 1.7039391656868505e-8
3686.8863524791363, 1.6734418304358777e-8
3760.83087874325, 1.6000394988242208e-8
3855.670103092784, 1.460185185185185e-8
3917.525773195877, 1.3481481481481477e-8
3982.6644575355917, 1.2470444392391728e-8
4019.636720667649, 1.1440579530423277e-8
4103.092783505155, 9.916666666666663e-9
4164.948453608247, 8.796296296296294e-9
4247.422680412372, 7.472222222222217e-9
4329.896907216495, 6.249999999999996e-9
4412.371134020619, 5.129629629629627e-9
4544.642857142857, 3.8872708805744465e-9
4655.559646539028, 3.0484492118606677e-9
4796.0542464408445, 2.2351649764844193e-9
4961.197021764032, 1.5934480177101688e-9
5121.410162002945, 9.55605158730158e-10
5284.088119783997, 4.907131834215159e-10
5446.766077565047, 6.56690917107577e-11
5609.444035346098, -3.062444885361599e-10
5772.121993127148, -6.814787257495634e-10
5939.7295859924725, -1.0283951382765119e-9
6097.477908689249, -1.3754960317460339e-9
6260.155866470301, -1.6776758156966515e-9
6422.833824251351, -1.9200837742504435e-9
6585.511782032401, -2.1126818783068807e-9
6748.1897398134515, -2.21230158730159e-9
6910.867697594502, -2.223923886684309e-9
7067.38361152021, -2.059274645429163e-9
7236.223613156604, -1.9355801734274053e-9
7396.436753395517, -1.7579250257201695e-9
7561.579528718705, -1.4053819444444467e-9
7724.257486499755, -1.1364087301587344e-9
7886.935444280805, -9.205660273368628e-10
