956.5217391304341	3.1736499293508095e-15
2086.95652173913	2.9572099145761906e-15
2913.043478260869	2.8117610212545827e-15
3782.608695652173	2.7289948201130632e-15
4521.739130434782	2.6212869986509794e-15
5478.260869565216	2.518391640544479e-15
6434.78260869565	2.419535311634453e-15
7347.826086956522	2.3726297938176514e-15
8130.434782608696	2.326322356896619e-15
9086.95652173913	2.2813256110848253e-15
10086.95652173913	2.2372989787917215e-15
11086.95652173913	2.1941220035320698e-15
12086.95652173913	2.151778288024585e-15
13043.478260869564	2.110157650032375e-15
13869.565217391304	2.0903958145425054e-15
14782.608695652172	2.028953991469359e-15
16043.478260869564	1.990330268325653e-15
