-0.22927186642738182, 0.01177947466591478
-0.22705099163568063, 0.36810416438703825
-0.22721678783507415, 0.28661024848693145
-0.2271889791897, 0.23015869837742098
-0.22682464530578436, 0.1699087401156696
-0.22757932348678078, 0.116760520002118
-0.2280233786776049, 0.061670818244614956
-0.22710121366029418, 0.4288062678866467
-0.20951609316644512, 0.028113114648168902
-0.1996179402715658, 0.014572882970804613
-0.0026586873283176438, -0.4546543258382233
-0.0040959033550810875, -0.2333263087009736
-0.004251804098508949, -0.3395531135520019
-0.0012841965018881574, -0.5232168245473018
-0.0009614629998710988, -0.1842946873968585
-0.0005505960100560259, -0.6066287215172482
-0.0008744403257312516, -0.673862441855915
0.0012768188606095965, 0.21270459827794785
-0.002856210798026393, -0.39724519469135855
0.005261382783599111, 0.2762137476527112
0.0061227064173667856, 0.3393209740028038
0.00646969651464635, 0.540728177974521
0.006503235426340015, 0.47264418723638424
0.006536268726299588, 0.4055865883184203
