72.39383573477085, -0.025671932066674952
90.8443039286824, -0.2148783936348324
116.34445941743547, -0.3664183097011513
149.81341349642366, -0.47954819381459934
186.20426039183167, -0.5174183766534259
219.9388410904944, -0.5300242973516873
255.0015548875299, -0.5004742166377638
290.06426868456515, -0.4490088829308547
325.12698248160063, -0.3804983524516219
360.1896962786359, -0.30163895250347883
395.5180366953459, -0.22304256216397889
430.31512387270664, -0.1118589491544908
465.3778376697419, -0.009055106121417467
500.4405514667774, 0.09009619474615782
535.5032652638126, 0.20345182625733482
570.5659790608481, 0.315184105694958
605.0974396185345, 0.4347025566145417
640.6914066549189, 0.5447362348460332
675.7541204519541, 0.66133857050432
710.8168342489896, 0.7773321491350238
745.0826681870014, 0.8974989201024277
780.9422618430601, 1.0109426584699854
814.6768425417233, 1.1261206355473652
851.0676894371311, 1.2457191272337935
886.1304032341661, 1.3655838396455908
918.0055975951075, 1.4663042571198317
949.8807919560488, 1.5735102465850908
978.568466880896, 1.6664217879199406
