naca0012
 Alfa =   0.00000 Re =        0.000 Xflap,Yflap =     0.000000    0.000000
#    x        y        Cp
   1.00000  0.00126  0.42871
   0.99942  0.00134  0.37923
   0.99767  0.00159  0.31972
   0.99475  0.00199  0.27687
   0.99068  0.00256  0.23951
   0.98547  0.00328  0.20865
   0.97912  0.00415  0.18160
   0.97166  0.00517  0.15707
   0.96309  0.00632  0.13474
   0.95344  0.00761  0.11396
   0.94273  0.00902  0.09473
   0.93098  0.01055  0.07628
   0.91824  0.01218  0.05932
   0.90451  0.01391  0.04281
   0.88984  0.01574  0.02698
   0.87426  0.01764  0.01213
   0.85780  0.01961 -0.00249
   0.84051  0.02163 -0.01658
   0.82242  0.02371 -0.03037
   0.80358  0.02583 -0.04373
   0.78403  0.02798 -0.05691
   0.76382  0.03015 -0.07002
   0.74299  0.03233 -0.08275
   0.72160  0.03451 -0.09571
   0.69968  0.03667 -0.10836
   0.67730  0.03881 -0.12130
   0.65451  0.04092 -0.13411
   0.63135  0.04298 -0.14717
   0.60789  0.04498 -0.16036
   0.58418  0.04691 -0.17332
   0.56027  0.04876 -0.18698
   0.53622  0.05052 -0.20038
   0.51208  0.05216 -0.21411
   0.48792  0.05369 -0.22794
   0.46378  0.05508 -0.24171
   0.43973  0.05632 -0.25575
   0.41582  0.05740 -0.26985
   0.39211  0.05831 -0.28366
   0.36865  0.05904 -0.29742
   0.34549  0.05957 -0.31105
   0.32270  0.05990 -0.32426
   0.30032  0.06002 -0.33739
   0.27840  0.05991 -0.34935
   0.25701  0.05958 -0.36149
   0.23618  0.05901 -0.37211
   0.21597  0.05820 -0.38258
   0.19642  0.05716 -0.39133
   0.17758  0.05589 -0.39940
   0.15949  0.05437 -0.40511
   0.14220  0.05263 -0.41063
   0.12574  0.05065 -0.41287
   0.11016  0.04846 -0.41337
   0.09549  0.04605 -0.41096
   0.08176  0.04344 -0.40483
   0.06902  0.04063 -0.39473
   0.05727  0.03764 -0.37748
   0.04656  0.03448 -0.35414
   0.03691  0.03116 -0.31817
   0.02834  0.02768 -0.26561
   0.02088  0.02407 -0.19178
   0.01453  0.02033 -0.07923
   0.00931  0.01647  0.08181
   0.00525  0.01250  0.30907
   0.00233  0.00843  0.59855
   0.00058  0.00426  0.87795
   0.00000  0.00000  1.00000
   0.00058 -0.00426  0.87759
   0.00233 -0.00843  0.59827
   0.00525 -0.01250  0.30901
   0.00931 -0.01647  0.08253
   0.01453 -0.02033 -0.08080
   0.02088 -0.02407 -0.19057
   0.02834 -0.02768 -0.26659
   0.03691 -0.03116 -0.31799
   0.04656 -0.03448 -0.35423
   0.05727 -0.03764 -0.37783
   0.06902 -0.04063 -0.39464
   0.08176 -0.04344 -0.40515
   0.09549 -0.04605 -0.41081
   0.11016 -0.04846 -0.41353
   0.12574 -0.05065 -0.41301
   0.14220 -0.05263 -0.41038
   0.15949 -0.05437 -0.40540
   0.17758 -0.05589 -0.39956
   0.19642 -0.05716 -0.39137
   0.21597 -0.05820 -0.38256
   0.23618 -0.05901 -0.37229
   0.25701 -0.05958 -0.36136
   0.27840 -0.05991 -0.34973
   0.30032 -0.06002 -0.33721
   0.32270 -0.05990 -0.32445
   0.34549 -0.05957 -0.31101
   0.36865 -0.05904 -0.29753
   0.39211 -0.05831 -0.28362
   0.41582 -0.05740 -0.26994
   0.43973 -0.05632 -0.25568
   0.46378 -0.05508 -0.24180
   0.48792 -0.05369 -0.22808
   0.51208 -0.05216 -0.21411
   0.53622 -0.05052 -0.20047
   0.56027 -0.04876 -0.18682
   0.58418 -0.04691 -0.17355
   0.60789 -0.04498 -0.16030
   0.63135 -0.04298 -0.14735
   0.65451 -0.04092 -0.13405
   0.67730 -0.03881 -0.12135
   0.69968 -0.03667 -0.10839
   0.72160 -0.03451 -0.09584
   0.74299 -0.03233 -0.08280
   0.76382 -0.03015 -0.07000
   0.78403 -0.02798 -0.05692
   0.80358 -0.02583 -0.04379
   0.82242 -0.02371 -0.03039
   0.84051 -0.02163 -0.01671
   0.85780 -0.01961 -0.00256
   0.87426 -0.01764  0.01205
   0.88984 -0.01574  0.02696
   0.90451 -0.01391  0.04269
   0.91824 -0.01218  0.05916
   0.93098 -0.01055  0.07630
   0.94273 -0.00902  0.09485
   0.95344 -0.00761  0.11371
   0.96309 -0.00632  0.13453
   0.97166 -0.00517  0.15692
   0.97912 -0.00415  0.18162
   0.98547 -0.00328  0.20838
   0.99068 -0.00256  0.23955
   0.99475 -0.00199  0.27702
   0.99767 -0.00159  0.31881
   0.99942 -0.00134  0.37788
   1.00000 -0.00126  0.42871
